<?xml version="1.0" encoding="UTF-8" standalone="no"?>
<svg
   xmlns:dc="http://purl.org/dc/elements/1.1/"
   xmlns:cc="http://creativecommons.org/ns#"
   xmlns:rdf="http://www.w3.org/1999/02/22-rdf-syntax-ns#"
   xmlns:svg="http://www.w3.org/2000/svg"
   xmlns="http://www.w3.org/2000/svg"
   xmlns:sodipodi="http://sodipodi.sourceforge.net/DTD/sodipodi-0.dtd"
   xmlns:inkscape="http://www.inkscape.org/namespaces/inkscape"
   fill-opacity="0"
   color-rendering="auto"
   color-interpolation="auto"
   stroke="rgb(0,0,0)"
   text-rendering="auto"
   stroke-linecap="square"
   width="395"
   stroke-miterlimit="10"
   stroke-opacity="0"
   shape-rendering="auto"
   fill="rgb(0,0,0)"
   stroke-dasharray="none"
   font-weight="normal"
   stroke-width="1"
   height="246"
   font-family="'Dialog'"
   font-style="normal"
   stroke-linejoin="miter"
   font-size="12"
   stroke-dashoffset="0"
   image-rendering="auto"
   id="svg7507"
   version="1.1"
   inkscape:version="0.91 r13725"
   sodipodi:docname="Command stack components.svg">
  <metadata
     id="metadata7714">
    <rdf:RDF>
      <cc:Work
         rdf:about="">
        <dc:format>image/svg+xml</dc:format>
        <dc:type
           rdf:resource="http://purl.org/dc/dcmitype/StillImage" />
      </cc:Work>
    </rdf:RDF>
  </metadata>
  <sodipodi:namedview
     pagecolor="#ffffff"
     bordercolor="#666666"
     borderopacity="1"
     objecttolerance="10"
     gridtolerance="10"
     guidetolerance="10"
     inkscape:pageopacity="0"
     inkscape:pageshadow="2"
     inkscape:window-width="1920"
     inkscape:window-height="1017"
     id="namedview7712"
     showgrid="false"
     inkscape:zoom="2.0837273"
     inkscape:cx="275.33872"
     inkscape:cy="114.08296"
     inkscape:window-x="-8"
     inkscape:window-y="-8"
     inkscape:window-maximized="1"
     inkscape:current-layer="svg7507" />
  <!--Generated by the Batik Graphics2D SVG Generator-->
  <defs
     id="genericDefs">
    <defs
       id="defs1">
      <clipPath
         id="clipPath1"
         clipPathUnits="userSpaceOnUse">
        <path
           id="path7514"
           d="M-7 -7 L152 -7 L152 51 L-7 51 L-7 -7 Z" />
      </clipPath>
      <clipPath
         id="clipPath2"
         clipPathUnits="userSpaceOnUse">
        <path
           id="path7517"
           d="M0 0 L0 40 L122 40 L122 0 Z" />
      </clipPath>
      <clipPath
         id="clipPath3"
         clipPathUnits="userSpaceOnUse">
        <path
           id="path7520"
           d="M0 0 L0 7 L141 7 L141 0 Z" />
      </clipPath>
      <clipPath
         id="clipPath4"
         clipPathUnits="userSpaceOnUse">
        <path
           id="path7523"
           d="M-7 -7 L178 -7 L178 59 L-7 59 L-7 -7 Z" />
      </clipPath>
      <clipPath
         id="clipPath5"
         clipPathUnits="userSpaceOnUse">
        <path
           id="path7526"
           d="M0 0 L0 48 L148 48 L148 0 Z" />
      </clipPath>
      <clipPath
         id="clipPath6"
         clipPathUnits="userSpaceOnUse">
        <path
           id="path7529"
           d="M-7 -7 L180 -7 L180 59 L-7 59 L-7 -7 Z" />
      </clipPath>
      <clipPath
         id="clipPath7"
         clipPathUnits="userSpaceOnUse">
        <path
           id="path7532"
           d="M0 0 L0 48 L151 48 L151 0 Z" />
      </clipPath>
      <clipPath
         id="clipPath8"
         clipPathUnits="userSpaceOnUse">
        <path
           id="path7535"
           d="M-7 -7 L159 -7 L159 60 L-7 60 L-7 -7 Z" />
      </clipPath>
      <clipPath
         id="clipPath9"
         clipPathUnits="userSpaceOnUse">
        <path
           id="path7538"
           d="M0 0 L0 48 L129 48 L129 0 Z" />
      </clipPath>
      <clipPath
         id="clipPath10"
         clipPathUnits="userSpaceOnUse">
        <path
           id="path7541"
           d="M0 0 L0 1 L148 1 L148 0 Z" />
      </clipPath>
      <clipPath
         id="clipPath11"
         clipPathUnits="userSpaceOnUse">
        <path
           id="path7544"
           d="M0 0 L161 0 L161 81 L0 81 L0 0 Z" />
      </clipPath>
      <clipPath
         id="clipPath12"
         clipPathUnits="userSpaceOnUse">
        <path
           id="path7547"
           d="M0 0 L132 0 L132 118 L0 118 L0 0 Z" />
      </clipPath>
      <clipPath
         id="clipPath13"
         clipPathUnits="userSpaceOnUse">
        <path
           id="path7550"
           d="M0 0 L133 0 L133 99 L0 99 L0 0 Z" />
      </clipPath>
    </defs>
  </defs>
  <g
     style="fill:#ffffff;fill-opacity:1;stroke:#ffffff;stroke-opacity:1;text-rendering:geometricPrecision"
     id="g7552">
    <rect
       style="stroke:none"
       id="rect7554"
       y="0"
       height="246"
       width="395"
       x="0" />
  </g>
  <g
     style="font-weight:bold;font-size:11px;font-family:sans-serif;fill:#ffffff;fill-opacity:1;stroke:#ffffff;stroke-opacity:1;text-rendering:geometricPrecision"
     id="g7556"
     font-weight="bold"
     transform="translate(1.6154,2)"
     font-size="11">
    <rect
       style="stroke:none"
       id="rect7558"
       clip-path="url(#clipPath1)"
       y="0"
       height="40"
       width="141"
       x="0" />
  </g>
  <g
     style="font-weight:bold;font-size:11px;font-family:sans-serif;fill:#000000;fill-opacity:1;stroke:#000000;stroke-linecap:butt;stroke-linejoin:round;stroke-miterlimit:0;stroke-opacity:1;text-rendering:geometricPrecision"
     id="g7560"
     stroke-miterlimit="0"
     font-weight="bold"
     transform="translate(1.6154,2)"
     font-size="11">
    <rect
       style="fill:none"
       id="rect7562"
       clip-path="url(#clipPath1)"
       y="0"
       height="39"
       width="140"
       x="0" />
    <line
       style="fill:none;stroke-linecap:square;stroke-linejoin:miter;stroke-miterlimit:10"
       id="line7564"
       stroke-miterlimit="10"
       y2="5"
       y1="5"
       x2="135"
       x1="125"
       clip-path="url(#clipPath1)" />
    <line
       style="fill:none;stroke-linecap:square;stroke-linejoin:miter;stroke-miterlimit:10"
       id="line7566"
       stroke-miterlimit="10"
       y2="21"
       y1="5"
       x2="135"
       x1="135"
       clip-path="url(#clipPath1)" />
    <line
       style="fill:none;stroke-linecap:square;stroke-linejoin:miter;stroke-miterlimit:10"
       id="line7568"
       stroke-miterlimit="10"
       y2="21"
       y1="21"
       x2="135"
       x1="125"
       clip-path="url(#clipPath1)" />
    <line
       style="fill:none;stroke-linecap:square;stroke-linejoin:miter;stroke-miterlimit:10"
       id="line7570"
       stroke-miterlimit="10"
       y2="8"
       y1="5"
       x2="125"
       x1="125"
       clip-path="url(#clipPath1)" />
    <rect
       style="fill:none;stroke-linecap:square;stroke-linejoin:miter;stroke-miterlimit:10"
       id="rect7572"
       stroke-miterlimit="10"
       height="4"
       width="7"
       clip-path="url(#clipPath1)"
       y="8"
       x="122" />
    <line
       style="fill:none;stroke-linecap:square;stroke-linejoin:miter;stroke-miterlimit:10"
       id="line7574"
       stroke-miterlimit="10"
       y2="14"
       y1="12"
       x2="125"
       x1="125"
       clip-path="url(#clipPath1)" />
    <rect
       style="fill:none;stroke-linecap:square;stroke-linejoin:miter;stroke-miterlimit:10"
       id="rect7576"
       stroke-miterlimit="10"
       height="4"
       width="7"
       clip-path="url(#clipPath1)"
       y="14"
       x="122" />
    <line
       style="fill:none;stroke-linecap:square;stroke-linejoin:miter;stroke-miterlimit:10"
       id="line7578"
       stroke-miterlimit="10"
       y2="21"
       y1="18"
       x2="125"
       x1="125"
       clip-path="url(#clipPath1)" />
  </g>
  <g
     style="font-size:11px;font-family:sans-serif;fill:#000000;fill-opacity:1;stroke:#000000;stroke-opacity:1;text-rendering:geometricPrecision"
     id="g7580"
     transform="translate(1.6154,2)"
     font-size="11">
    <text
       style="stroke:none"
       id="text7582"
       clip-path="url(#clipPath2)"
       y="15"
       xml:space="preserve"
       x="20">&lt;&lt;component&gt;&gt;</text>
    <text
       style="font-weight:bold;stroke:none"
       id="text7584"
       clip-path="url(#clipPath2)"
       font-weight="bold"
       y="30"
       xml:space="preserve"
       x="18">WPF application</text>
  </g>
  <g
     style="font-weight:bold;font-size:11px;font-family:sans-serif;fill:#ffffff;fill-opacity:1;stroke:#ffffff;stroke-opacity:1;text-rendering:geometricPrecision"
     id="g7586"
     font-weight="bold"
     transform="translate(224.6154,42)"
     font-size="11">
    <rect
       style="stroke:none"
       id="rect7588"
       clip-path="url(#clipPath4)"
       y="0"
       height="48"
       width="167"
       x="0" />
  </g>
  <g
     style="font-weight:bold;font-size:11px;font-family:sans-serif;fill:#000000;fill-opacity:1;stroke:#000000;stroke-linecap:butt;stroke-linejoin:round;stroke-miterlimit:0;stroke-opacity:1;text-rendering:geometricPrecision"
     id="g7590"
     stroke-miterlimit="0"
     font-weight="bold"
     transform="translate(224.6154,42)"
     font-size="11">
    <rect
       style="fill:none"
       id="rect7592"
       clip-path="url(#clipPath4)"
       y="0"
       height="47"
       width="166"
       x="0" />
    <line
       style="fill:none;stroke-linecap:square;stroke-linejoin:miter;stroke-miterlimit:10"
       id="line7594"
       stroke-miterlimit="10"
       y2="5"
       y1="5"
       x2="161"
       x1="151"
       clip-path="url(#clipPath4)" />
    <line
       style="fill:none;stroke-linecap:square;stroke-linejoin:miter;stroke-miterlimit:10"
       id="line7596"
       stroke-miterlimit="10"
       y2="21"
       y1="5"
       x2="161"
       x1="161"
       clip-path="url(#clipPath4)" />
    <line
       style="fill:none;stroke-linecap:square;stroke-linejoin:miter;stroke-miterlimit:10"
       id="line7598"
       stroke-miterlimit="10"
       y2="21"
       y1="21"
       x2="161"
       x1="151"
       clip-path="url(#clipPath4)" />
    <line
       style="fill:none;stroke-linecap:square;stroke-linejoin:miter;stroke-miterlimit:10"
       id="line7600"
       stroke-miterlimit="10"
       y2="8"
       y1="5"
       x2="151"
       x1="151"
       clip-path="url(#clipPath4)" />
    <rect
       style="fill:none;stroke-linecap:square;stroke-linejoin:miter;stroke-miterlimit:10"
       id="rect7602"
       stroke-miterlimit="10"
       height="4"
       width="7"
       clip-path="url(#clipPath4)"
       y="8"
       x="148" />
    <line
       style="fill:none;stroke-linecap:square;stroke-linejoin:miter;stroke-miterlimit:10"
       id="line7604"
       stroke-miterlimit="10"
       y2="14"
       y1="12"
       x2="151"
       x1="151"
       clip-path="url(#clipPath4)" />
    <rect
       style="fill:none;stroke-linecap:square;stroke-linejoin:miter;stroke-miterlimit:10"
       id="rect7606"
       stroke-miterlimit="10"
       height="4"
       width="7"
       clip-path="url(#clipPath4)"
       y="14"
       x="148" />
    <line
       style="fill:none;stroke-linecap:square;stroke-linejoin:miter;stroke-miterlimit:10"
       id="line7608"
       stroke-miterlimit="10"
       y2="21"
       y1="18"
       x2="151"
       x1="151"
       clip-path="url(#clipPath4)" />
  </g>
  <g
     style="font-size:11px;font-family:sans-serif;fill:#000000;fill-opacity:1;stroke:#000000;stroke-opacity:1;text-rendering:geometricPrecision"
     id="g7610"
     transform="translate(224.6154,42)"
     font-size="11">
    <text
       style="stroke:none"
       id="text7612"
       clip-path="url(#clipPath5)"
       y="15"
       xml:space="preserve"
       x="33">&lt;&lt;component&gt;&gt;</text>
    <text
       style="stroke:none"
       id="text7614"
       clip-path="url(#clipPath5)"
       y="30"
       xml:space="preserve"
       x="43">&lt;&lt;service&gt;&gt;</text>
    <text
       style="font-weight:bold;stroke:none"
       id="text7616"
       clip-path="url(#clipPath5)"
       font-weight="bold"
       y="45"
       xml:space="preserve"
       x="27">Validation service</text>
  </g>
  <g
     style="font-weight:bold;font-size:11px;font-family:sans-serif;fill:#ffffff;fill-opacity:1;stroke:#ffffff;stroke-opacity:1;text-rendering:geometricPrecision"
     id="g7618"
     font-weight="bold"
     transform="translate(2.6154,128)"
     font-size="11">
    <rect
       style="stroke:none"
       id="rect7620"
       clip-path="url(#clipPath6)"
       y="0"
       height="48"
       width="169"
       x="0" />
  </g>
  <g
     style="font-weight:bold;font-size:11px;font-family:sans-serif;fill:#000000;fill-opacity:1;stroke:#000000;stroke-linecap:butt;stroke-linejoin:round;stroke-miterlimit:0;stroke-opacity:1;text-rendering:geometricPrecision"
     id="g7622"
     stroke-miterlimit="0"
     font-weight="bold"
     transform="translate(2.6154,128)"
     font-size="11">
    <rect
       style="fill:none"
       id="rect7624"
       clip-path="url(#clipPath6)"
       y="0"
       height="47"
       width="168"
       x="0" />
    <line
       style="fill:none;stroke-linecap:square;stroke-linejoin:miter;stroke-miterlimit:10"
       id="line7626"
       stroke-miterlimit="10"
       y2="5"
       y1="5"
       x2="163"
       x1="153"
       clip-path="url(#clipPath6)" />
    <line
       style="fill:none;stroke-linecap:square;stroke-linejoin:miter;stroke-miterlimit:10"
       id="line7628"
       stroke-miterlimit="10"
       y2="21"
       y1="5"
       x2="163"
       x1="163"
       clip-path="url(#clipPath6)" />
    <line
       style="fill:none;stroke-linecap:square;stroke-linejoin:miter;stroke-miterlimit:10"
       id="line7630"
       stroke-miterlimit="10"
       y2="21"
       y1="21"
       x2="163"
       x1="153"
       clip-path="url(#clipPath6)" />
    <line
       style="fill:none;stroke-linecap:square;stroke-linejoin:miter;stroke-miterlimit:10"
       id="line7632"
       stroke-miterlimit="10"
       y2="8"
       y1="5"
       x2="153"
       x1="153"
       clip-path="url(#clipPath6)" />
    <rect
       style="fill:none;stroke-linecap:square;stroke-linejoin:miter;stroke-miterlimit:10"
       id="rect7634"
       stroke-miterlimit="10"
       height="4"
       width="7"
       clip-path="url(#clipPath6)"
       y="8"
       x="150" />
    <line
       style="fill:none;stroke-linecap:square;stroke-linejoin:miter;stroke-miterlimit:10"
       id="line7636"
       stroke-miterlimit="10"
       y2="14"
       y1="12"
       x2="153"
       x1="153"
       clip-path="url(#clipPath6)" />
    <rect
       style="fill:none;stroke-linecap:square;stroke-linejoin:miter;stroke-miterlimit:10"
       id="rect7638"
       stroke-miterlimit="10"
       height="4"
       width="7"
       clip-path="url(#clipPath6)"
       y="14"
       x="150" />
    <line
       style="fill:none;stroke-linecap:square;stroke-linejoin:miter;stroke-miterlimit:10"
       id="line7640"
       stroke-miterlimit="10"
       y2="21"
       y1="18"
       x2="153"
       x1="153"
       clip-path="url(#clipPath6)" />
  </g>
  <g
     style="font-size:11px;font-family:sans-serif;fill:#000000;fill-opacity:1;stroke:#000000;stroke-opacity:1;text-rendering:geometricPrecision"
     id="g7642"
     transform="translate(2.6154,128)"
     font-size="11">
    <text
       style="stroke:none"
       id="text7644"
       clip-path="url(#clipPath7)"
       y="15"
       xml:space="preserve"
       x="34">&lt;&lt;component&gt;&gt;</text>
    <text
       style="stroke:none"
       id="text7646"
       clip-path="url(#clipPath7)"
       y="30"
       xml:space="preserve"
       x="44">&lt;&lt;service&gt;&gt;</text>
    <text
       style="font-weight:bold;stroke:none"
       id="text7648"
       clip-path="url(#clipPath7)"
       font-weight="bold"
       y="45"
       xml:space="preserve"
       x="18">3rd party ERP system</text>
  </g>
  <g
     style="font-weight:bold;font-size:11px;font-family:sans-serif;fill:#ffffff;fill-opacity:1;stroke:#ffffff;stroke-opacity:1;text-rendering:geometricPrecision"
     id="g7650"
     font-weight="bold"
     transform="translate(224.6154,194)"
     font-size="11">
    <rect
       style="stroke:none"
       id="rect7652"
       clip-path="url(#clipPath8)"
       y="0"
       height="49"
       width="148"
       x="0" />
  </g>
  <g
     style="font-weight:bold;font-size:11px;font-family:sans-serif;fill:#000000;fill-opacity:1;stroke:#000000;stroke-linecap:butt;stroke-linejoin:round;stroke-miterlimit:0;stroke-opacity:1;text-rendering:geometricPrecision"
     id="g7654"
     stroke-miterlimit="0"
     font-weight="bold"
     transform="translate(224.6154,194)"
     font-size="11">
    <rect
       style="fill:none"
       id="rect7656"
       clip-path="url(#clipPath8)"
       y="0"
       height="48"
       width="147"
       x="0" />
    <line
       style="fill:none;stroke-linecap:square;stroke-linejoin:miter;stroke-miterlimit:10"
       id="line7658"
       stroke-miterlimit="10"
       y2="5"
       y1="5"
       x2="142"
       x1="132"
       clip-path="url(#clipPath8)" />
    <line
       style="fill:none;stroke-linecap:square;stroke-linejoin:miter;stroke-miterlimit:10"
       id="line7660"
       stroke-miterlimit="10"
       y2="21"
       y1="5"
       x2="142"
       x1="142"
       clip-path="url(#clipPath8)" />
    <line
       style="fill:none;stroke-linecap:square;stroke-linejoin:miter;stroke-miterlimit:10"
       id="line7662"
       stroke-miterlimit="10"
       y2="21"
       y1="21"
       x2="142"
       x1="132"
       clip-path="url(#clipPath8)" />
    <line
       style="fill:none;stroke-linecap:square;stroke-linejoin:miter;stroke-miterlimit:10"
       id="line7664"
       stroke-miterlimit="10"
       y2="8"
       y1="5"
       x2="132"
       x1="132"
       clip-path="url(#clipPath8)" />
    <rect
       style="fill:none;stroke-linecap:square;stroke-linejoin:miter;stroke-miterlimit:10"
       id="rect7666"
       stroke-miterlimit="10"
       height="4"
       width="7"
       clip-path="url(#clipPath8)"
       y="8"
       x="129" />
    <line
       style="fill:none;stroke-linecap:square;stroke-linejoin:miter;stroke-miterlimit:10"
       id="line7668"
       stroke-miterlimit="10"
       y2="14"
       y1="12"
       x2="132"
       x1="132"
       clip-path="url(#clipPath8)" />
    <rect
       style="fill:none;stroke-linecap:square;stroke-linejoin:miter;stroke-miterlimit:10"
       id="rect7670"
       stroke-miterlimit="10"
       height="4"
       width="7"
       clip-path="url(#clipPath8)"
       y="14"
       x="129" />
    <line
       style="fill:none;stroke-linecap:square;stroke-linejoin:miter;stroke-miterlimit:10"
       id="line7672"
       stroke-miterlimit="10"
       y2="21"
       y1="18"
       x2="132"
       x1="132"
       clip-path="url(#clipPath8)" />
  </g>
  <g
     style="font-size:11px;font-family:sans-serif;fill:#000000;fill-opacity:1;stroke:#000000;stroke-opacity:1;text-rendering:geometricPrecision"
     id="g7674"
     transform="translate(224.6154,194)"
     font-size="11">
    <text
       style="stroke:none"
       id="text7676"
       clip-path="url(#clipPath9)"
       y="15"
       xml:space="preserve"
       x="23">&lt;&lt;component&gt;&gt;</text>
    <text
       style="stroke:none"
       id="text7678"
       clip-path="url(#clipPath9)"
       y="30"
       xml:space="preserve"
       x="34">&lt;&lt;service&gt;&gt;</text>
    <text
       style="font-weight:bold;stroke:none"
       id="text7680"
       clip-path="url(#clipPath9)"
       font-weight="bold"
       y="45"
       xml:space="preserve"
       x="24">Publish service</text>
  </g>
  <g
     style="font-size:11px;font-family:sans-serif;fill:#000000;fill-opacity:1;stroke:#000000;stroke-linecap:butt;stroke-linejoin:round;stroke-opacity:1;text-rendering:geometricPrecision"
     id="g7682"
     transform="translate(104.6154,3)"
     font-size="11">
    <line
       style="fill:none"
       id="line7684"
       y1="38"
       x2="118"
       clip-path="url(#clipPath11)"
       x1="38"
       y2="38" />
    <line
       style="fill:none"
       id="line7686"
       y1="38"
       x2="106"
       clip-path="url(#clipPath11)"
       x1="118"
       y2="32" />
    <line
       style="fill:none"
       id="line7688"
       y1="38"
       x2="106"
       clip-path="url(#clipPath11)"
       x1="118"
       y2="44" />
  </g>
  <g
     style="font-size:11px;font-family:sans-serif;fill:#000000;fill-opacity:1;stroke:#000000;stroke-linecap:butt;stroke-linejoin:round;stroke-opacity:1;text-rendering:geometricPrecision"
     id="g7690"
     transform="translate(134.6154,53)"
     font-size="11">
    <line
       style="fill:none"
       id="line7692"
       y1="38"
       x2="38"
       clip-path="url(#clipPath12)"
       x1="90"
       y2="75" />
    <line
       style="fill:none"
       id="line7694"
       y1="75"
       x2="51"
       clip-path="url(#clipPath12)"
       x1="38"
       y2="73" />
    <line
       style="fill:none"
       id="line7696"
       y1="75"
       x2="44"
       clip-path="url(#clipPath12)"
       x1="38"
       y2="63" />
  </g>
  <g
     style="font-size:11px;font-family:sans-serif;fill:#000000;fill-opacity:1;stroke:#000000;stroke-linecap:butt;stroke-linejoin:round;stroke-opacity:1;text-rendering:geometricPrecision"
     id="g7698"
     transform="translate(133.6154,138)"
     font-size="11">
    <line
       style="fill:none"
       id="line7700"
       y1="38"
       x2="91"
       clip-path="url(#clipPath13)"
       x1="38"
       y2="56" />
    <line
       style="fill:none"
       id="line7702"
       y1="56"
       x2="81"
       clip-path="url(#clipPath13)"
       x1="91"
       y2="46" />
    <line
       style="fill:none"
       id="line7704"
       y1="56"
       x2="77"
       clip-path="url(#clipPath13)"
       x1="91"
       y2="57" />
  </g>
</svg>
